<?xml version="1.0" encoding="UTF-8" standalone="no"?>
<!-- Created with Inkscape (http://www.inkscape.org/) -->

<svg
   xmlns:dc="http://purl.org/dc/elements/1.1/"
   xmlns:cc="http://creativecommons.org/ns#"
   xmlns:rdf="http://www.w3.org/1999/02/22-rdf-syntax-ns#"
   xmlns:svg="http://www.w3.org/2000/svg"
   xmlns="http://www.w3.org/2000/svg"
   xmlns:sodipodi="http://sodipodi.sourceforge.net/DTD/sodipodi-0.dtd"
   xmlns:inkscape="http://www.inkscape.org/namespaces/inkscape"
   width="1052.3622"
   height="744.09448"
   id="svg2"
   version="1.1"
   inkscape:version="0.48.4 r9939"
   sodipodi:docname="1a.pdf">
  <defs
     id="defs4" />
  <sodipodi:namedview
     id="base"
     pagecolor="#ffffff"
     bordercolor="#666666"
     borderopacity="1.0"
     inkscape:pageopacity="0.0"
     inkscape:pageshadow="2"
     inkscape:zoom="0.7"
     inkscape:cx="703.78173"
     inkscape:cy="282.48615"
     inkscape:document-units="px"
     inkscape:current-layer="layer1"
     showgrid="true"
     showguides="false"
     inkscape:snap-global="false"
     inkscape:window-width="1871"
     inkscape:window-height="1056"
     inkscape:window-x="49"
     inkscape:window-y="24"
     inkscape:window-maximized="1">
    <inkscape:grid
       type="xygrid"
       id="grid3757"
       empspacing="5"
       visible="true"
       enabled="true"
       snapvisiblegridlinesonly="true" />
  </sodipodi:namedview>
  <metadata
     id="metadata7">
    <rdf:RDF>
      <cc:Work
         rdf:about="">
        <dc:format>image/svg+xml</dc:format>
        <dc:type
           rdf:resource="http://purl.org/dc/dcmitype/StillImage" />
        <dc:title></dc:title>
      </cc:Work>
    </rdf:RDF>
  </metadata>
  <g
     inkscape:label="Layer 1"
     inkscape:groupmode="layer"
     id="layer1"
     transform="translate(0,-308.2677)">
    <rect
       style="fill:none;stroke:#000000;stroke-width:4;stroke-linecap:round;stroke-linejoin:round;stroke-miterlimit:4;stroke-opacity:1;stroke-dasharray:none;stroke-dashoffset:0"
       id="rect3755"
       width="159.07158"
       height="94.810875"
       x="429.73743"
       y="387.81387"
       ry="4.184742" />
    <rect
       style="fill:none;stroke:#000000;stroke-width:4;stroke-linecap:round;stroke-linejoin:round;stroke-miterlimit:4;stroke-opacity:1;stroke-dasharray:none;stroke-dashoffset:0"
       id="rect3755-9"
       width="159.07158"
       height="94.810875"
       x="201.89278"
       y="533.5282"
       ry="4.184742" />
    <rect
       style="fill:none;stroke:#000000;stroke-width:4;stroke-linecap:round;stroke-linejoin:round;stroke-miterlimit:4;stroke-opacity:1;stroke-dasharray:none;stroke-dashoffset:0"
       id="rect3755-3"
       width="159.07158"
       height="94.810875"
       x="659.03564"
       y="533.52814"
       ry="4.184742" />
    <rect
       style="fill:none;stroke:#000000;stroke-width:4;stroke-linecap:round;stroke-linejoin:round;stroke-miterlimit:4;stroke-opacity:1;stroke-dasharray:none;stroke-dashoffset:0"
       id="rect3755-2"
       width="159.07158"
       height="94.810875"
       x="481.89279"
       y="710.67108"
       ry="4.184742" />
    <rect
       style="fill:none;stroke:#000000;stroke-width:4;stroke-linecap:round;stroke-linejoin:round;stroke-miterlimit:4;stroke-opacity:1;stroke-dasharray:none;stroke-dashoffset:0"
       id="rect3755-90"
       width="159.07158"
       height="94.810875"
       x="860.46417"
       y="712.09955"
       ry="4.184742" />
    <path
       inkscape:connector-curvature="0"
       d="m 286.80666,534.47453 -8.43918,-1.99263 4.21321,-7.81688"
       id="path869-5-8-5-1-5-98-6-6-5-1-1"
       sodipodi:nodetypes="ccc"
       sodipodi:stroke-cmyk="(0.0000000 0.0000000 0.0000000 0.80000001)"
       style="fill:none;stroke:#000000;stroke-width:4;stroke-linecap:round;stroke-linejoin:round;stroke-miterlimit:4;stroke-opacity:1;stroke-dasharray:none;display:inline" />
    <path
       inkscape:connector-curvature="0"
       d="m 566.17481,710.52093 -8.517,-1.62818 3.87344,-7.99069"
       id="path869-5-8-5-1-5-98-6-6-5-1-1-6"
       sodipodi:nodetypes="ccc"
       sodipodi:stroke-cmyk="(0.0000000 0.0000000 0.0000000 0.80000001)"
       style="fill:none;stroke:#000000;stroke-width:4;stroke-linecap:round;stroke-linejoin:round;stroke-miterlimit:4;stroke-opacity:1;stroke-dasharray:none;display:inline" />
    <path
       inkscape:connector-curvature="0"
       d="m 946.4692,703.03952 3.47004,7.94665 -8.78132,1.32026"
       id="path869-5-8-5-1-5-98-6-6-5-1-1-6-5"
       sodipodi:nodetypes="ccc"
       sodipodi:stroke-cmyk="(0.0000000 0.0000000 0.0000000 0.80000001)"
       style="fill:none;stroke:#000000;stroke-width:4;stroke-linecap:round;stroke-linejoin:round;stroke-miterlimit:4;stroke-opacity:1;stroke-dasharray:none;display:inline" />
    <path
       inkscape:connector-curvature="0"
       d="m 743.67918,525.90231 4.89991,7.15411 -8.37746,2.94499"
       id="path869-5-8-5-1-5-98-6-6-5-1-1-6-5-0"
       sodipodi:nodetypes="ccc"
       sodipodi:stroke-cmyk="(0.0000000 0.0000000 0.0000000 0.80000001)"
       style="fill:none;stroke:#000000;stroke-width:4;stroke-linecap:round;stroke-linejoin:round;stroke-miterlimit:4;stroke-opacity:1;stroke-dasharray:none;display:inline" />
    <path
       style="fill:none;stroke:#000000;stroke-width:4;stroke-linecap:round;stroke-linejoin:miter;stroke-opacity:1;stroke-miterlimit:4;stroke-dasharray:none"
       d="m 278.92857,223.73734 235.71429,-48.92857 233.92857,49.64285"
       id="path3924"
       inkscape:connector-curvature="0"
       transform="translate(0,308.2677)" />
    <path
       style="fill:none;stroke:#000000;stroke-width:4;stroke-linecap:round;stroke-linejoin:miter;stroke-opacity:1;stroke-miterlimit:4;stroke-dasharray:none"
       d="M 557.85714,400.52305 741.07143,319.45162 950,402.66591"
       id="path3926"
       inkscape:connector-curvature="0"
       transform="translate(0,308.2677)" />
    <text
       xml:space="preserve"
       style="font-size:14px;font-style:normal;font-variant:normal;font-weight:normal;font-stretch:normal;line-height:125%;letter-spacing:0px;word-spacing:0px;fill:#000000;fill-opacity:1;stroke:none;font-family:Ume Gothic O5;-inkscape-font-specification:Ume Gothic O5;stroke-width:4;stroke-miterlimit:4;stroke-dasharray:none"
       x="497.85712"
       y="442.36218"
       id="text3928"
       sodipodi:linespacing="125%"><tspan
         sodipodi:role="line"
         id="tspan3930"
         x="497.85712"
         y="442.36218"
         style="font-size:36px;font-style:normal;font-variant:normal;font-weight:normal;font-stretch:normal;font-family:Ubuntu;-inkscape-font-specification:Ubuntu;stroke-width:4;stroke-miterlimit:4;stroke-dasharray:none">A</tspan></text>
    <text
       xml:space="preserve"
       style="font-size:14px;font-style:normal;font-variant:normal;font-weight:normal;font-stretch:normal;line-height:125%;letter-spacing:0px;word-spacing:0px;fill:#000000;fill-opacity:1;stroke:none;font-family:Ume Gothic O5;-inkscape-font-specification:Ume Gothic O5;stroke-width:4;stroke-miterlimit:4;stroke-dasharray:none"
       x="263.06601"
       y="590.55048"
       id="text3928-7"
       sodipodi:linespacing="125%"><tspan
         sodipodi:role="line"
         id="tspan3930-0"
         x="263.06601"
         y="590.55048"
         style="font-size:36px;font-style:normal;font-variant:normal;font-weight:normal;font-stretch:normal;font-family:Ubuntu;-inkscape-font-specification:Ubuntu;stroke-width:4;stroke-miterlimit:4;stroke-dasharray:none">0</tspan></text>
    <text
       xml:space="preserve"
       style="font-size:14px;font-style:normal;font-variant:normal;font-weight:normal;font-stretch:normal;line-height:125%;letter-spacing:0px;word-spacing:0px;fill:#000000;fill-opacity:1;stroke:none;font-family:Ume Gothic O5;-inkscape-font-specification:Ume Gothic O5;stroke-width:4;stroke-miterlimit:4;stroke-dasharray:none"
       x="735.20886"
       y="590.55048"
       id="text3928-77"
       sodipodi:linespacing="125%"><tspan
         sodipodi:role="line"
         id="tspan3930-1"
         x="735.20886"
         y="590.55048"
         style="font-size:36px;font-style:normal;font-variant:normal;font-weight:normal;font-stretch:normal;font-family:Ubuntu;-inkscape-font-specification:Ubuntu;stroke-width:4;stroke-miterlimit:4;stroke-dasharray:none">B</tspan></text>
    <text
       xml:space="preserve"
       style="font-size:14px;font-style:normal;font-variant:normal;font-weight:normal;font-stretch:normal;line-height:125%;letter-spacing:0px;word-spacing:0px;fill:#000000;fill-opacity:1;stroke:none;font-family:Ume Gothic O5;-inkscape-font-specification:Ume Gothic O5;stroke-width:4;stroke-miterlimit:4;stroke-dasharray:none"
       x="550.20886"
       y="770.55048"
       id="text3928-2"
       sodipodi:linespacing="125%"><tspan
         sodipodi:role="line"
         id="tspan3930-6"
         x="550.20886"
         y="770.55048"
         style="font-size:36px;font-style:normal;font-variant:normal;font-weight:normal;font-stretch:normal;font-family:Ubuntu;-inkscape-font-specification:Ubuntu;stroke-width:4;stroke-miterlimit:4;stroke-dasharray:none">0</tspan></text>
    <text
       xml:space="preserve"
       style="font-size:14px;font-style:normal;font-variant:normal;font-weight:normal;font-stretch:normal;line-height:125%;letter-spacing:0px;word-spacing:0px;fill:#000000;fill-opacity:1;stroke:none;font-family:Ume Gothic O5;-inkscape-font-specification:Ume Gothic O5;stroke-width:4;stroke-miterlimit:4;stroke-dasharray:none"
       x="938.78027"
       y="771.979"
       id="text3928-4"
       sodipodi:linespacing="125%"><tspan
         sodipodi:role="line"
         id="tspan3930-9"
         x="938.78027"
         y="771.979"
         style="font-size:36px;font-style:normal;font-variant:normal;font-weight:normal;font-stretch:normal;font-family:Ubuntu;-inkscape-font-specification:Ubuntu;stroke-width:4;stroke-miterlimit:4;stroke-dasharray:none">1</tspan></text>
    <text
       xml:space="preserve"
       style="font-size:14px;font-style:normal;font-variant:normal;font-weight:normal;font-stretch:normal;line-height:125%;letter-spacing:0px;word-spacing:0px;fill:#000000;fill-opacity:1;stroke:none;font-family:Ume Gothic O5;-inkscape-font-specification:Ume Gothic O5;stroke-width:4;stroke-miterlimit:4;stroke-dasharray:none"
       x="634.28577"
       y="497.36218"
       id="text3980"
       sodipodi:linespacing="125%"><tspan
         sodipodi:role="line"
         id="tspan3982"
         x="634.28577"
         y="497.36218"
         style="font-size:24px;font-style:normal;font-variant:normal;font-weight:normal;font-stretch:normal;font-family:Ubuntu;-inkscape-font-specification:Ubuntu;stroke-width:4;stroke-miterlimit:4;stroke-dasharray:none">A = F</tspan></text>
    <text
       xml:space="preserve"
       style="font-size:14px;font-style:normal;font-variant:normal;font-weight:normal;font-stretch:normal;line-height:125%;letter-spacing:0px;word-spacing:0px;fill:#000000;fill-opacity:1;stroke:none;font-family:Ume Gothic O5;-inkscape-font-specification:Ume Gothic O5;stroke-width:4;stroke-miterlimit:4;stroke-dasharray:none"
       x="322.89172"
       y="495.67819"
       id="text3980-5"
       sodipodi:linespacing="125%"><tspan
         sodipodi:role="line"
         id="tspan3982-7"
         x="322.89172"
         y="495.67819"
         style="font-size:24px;font-style:normal;font-variant:normal;font-weight:normal;font-stretch:normal;font-family:Ubuntu;-inkscape-font-specification:Ubuntu;stroke-width:4;stroke-miterlimit:4;stroke-dasharray:none">A = T</tspan></text>
    <text
       xml:space="preserve"
       style="font-size:14px;font-style:normal;font-variant:normal;font-weight:normal;font-stretch:normal;line-height:125%;letter-spacing:0px;word-spacing:0px;fill:#000000;fill-opacity:1;stroke:none;font-family:Ume Gothic O5;-inkscape-font-specification:Ume Gothic O5;stroke-width:4;stroke-miterlimit:4;stroke-dasharray:none"
       x="574.32025"
       y="656.39246"
       id="text3980-2"
       sodipodi:linespacing="125%"><tspan
         sodipodi:role="line"
         id="tspan3982-6"
         x="574.32025"
         y="656.39246"
         style="font-size:24px;font-style:normal;font-variant:normal;font-weight:normal;font-stretch:normal;font-family:Ubuntu;-inkscape-font-specification:Ubuntu;stroke-width:4;stroke-miterlimit:4;stroke-dasharray:none">B = T</tspan></text>
    <text
       xml:space="preserve"
       style="font-size:14px;font-style:normal;font-variant:normal;font-weight:normal;font-stretch:normal;line-height:125%;letter-spacing:0px;word-spacing:0px;fill:#000000;fill-opacity:1;stroke:none;font-family:Ume Gothic O5;-inkscape-font-specification:Ume Gothic O5;stroke-width:4;stroke-miterlimit:4;stroke-dasharray:none"
       x="862.89172"
       y="654.24963"
       id="text3980-9"
       sodipodi:linespacing="125%"><tspan
         sodipodi:role="line"
         id="tspan3982-69"
         x="862.89172"
         y="654.24963"
         style="font-size:24px;font-style:normal;font-variant:normal;font-weight:normal;font-stretch:normal;font-family:Ubuntu;-inkscape-font-specification:Ubuntu;stroke-width:4;stroke-miterlimit:4;stroke-dasharray:none">B = F</tspan></text>
  </g>
</svg>
